Source/MMU/pro/MMU_pro/simulation/modelsim/msim_transcript
# Reading D:/softs/ModelSim/tcl/vsim/pref.tcl 
# //  ModelSim SE-64 10.1c Jul 28 2012 
# //
# //  Copyright 1991-2012 Mentor Graphics Corporation
# //  All Rights Reserved.
# //
# //  THIS WORK CONTAINS TRADE SECRET AND PROPRIETARY INFORMATION
# //  WHICH IS THE PROPERTY OF MENTOR GRAPHICS CORPORATION OR ITS
# //  LICENSORS AND IS SUBJECT TO LICENSE TERMS.
# //
# do MMU_run_msim_rtl_verilog.do 
# if ![file isdirectory verilog_libs] {
# 	file mkdir verilog_libs
# }
# 
# vlib verilog_libs/altera_ver
# vmap altera_ver ./verilog_libs/altera_ver
# Copying D:\softs\ModelSim\win64/../modelsim.ini to modelsim.ini
# Modifying modelsim.ini
# ** Warning: Copied D:\softs\ModelSim\win64/../modelsim.ini to modelsim.ini.
#          Updated modelsim.ini.
# vlog -vlog01compat -work altera_ver {d:/softs/quartus_ii_file/quartus/eda/sim_lib/altera_primitives.v}
# Model Technology ModelSim SE-64 vlog 10.1c Compiler 2012.07 Jul 27 2012
# -- Compiling module global
# -- Compiling module carry
# -- Compiling module cascade
# -- Compiling module carry_sum
# -- Compiling module exp
# -- Compiling module soft
# -- Compiling module opndrn
# -- Compiling module row_global
# -- Compiling module TRI
# -- Compiling module lut_input
# -- Compiling module lut_output
# -- Compiling module latch
# -- Compiling module dlatch
# -- Compiling module prim_gdff
# -- Compiling module dff
# -- Compiling module dffe
# -- Compiling module dffea
# -- Compiling module dffeas
# -- Compiling module dffeas_pr
# -- Compiling module prim_gtff
# -- Compiling module tff
# -- Compiling module tffe
# -- Compiling module prim_gjkff
# -- Compiling module jkff
# -- Compiling module jkffe
# -- Compiling module prim_gsrff
# -- Compiling module srff
# -- Compiling module srffe
# -- Compiling module clklock
# -- Compiling module alt_inbuf
# -- Compiling module alt_outbuf
# -- Compiling module alt_outbuf_tri
# -- Compiling module alt_iobuf
# -- Compiling module alt_inbuf_diff
# -- Compiling module alt_outbuf_diff
# -- Compiling module alt_outbuf_tri_diff
# -- Compiling module alt_iobuf_diff
# -- Compiling module alt_bidir_diff
# -- Compiling module alt_bidir_buf
# -- Compiling UDP PRIM_GDFF_LOW
# -- Compiling UDP PRIM_GDFF_LOW_SCLR_PRIORITY
# -- Compiling UDP PRIM_GDFF_HIGH
# -- Compiling UDP PRIM_GDFF_HIGH_SCLR_PRIORITY
# 
# Top level modules:
# 	global
# 	carry
# 	cascade
# 	carry_sum
# 	exp
# 	soft
# 	opndrn
# 	row_global
# 	TRI
# 	lut_input
# 	lut_output
# 	latch
# 	dlatch
# 	dff
# 	dffe
# 	dffea
# 	dffeas
# 	dffeas_pr
# 	tff
# 	tffe
# 	jkff
# 	jkffe
# 	srff
# 	srffe
# 	clklock
# 	alt_inbuf
# 	alt_outbuf
# 	alt_outbuf_tri
# 	alt_iobuf
# 	alt_inbuf_diff
# 	alt_outbuf_diff
# 	alt_outbuf_tri_diff
# 	alt_iobuf_diff
# 	alt_bidir_diff
# 	alt_bidir_buf
# 
# vlib verilog_libs/lpm_ver
# vmap lpm_ver ./verilog_libs/lpm_ver
# Modifying modelsim.ini
# vlog -vlog01compat -work lpm_ver {d:/softs/quartus_ii_file/quartus/eda/sim_lib/220model.v}
# Model Technology ModelSim SE-64 vlog 10.1c Compiler 2012.07 Jul 27 2012
# -- Compiling module LPM_MEMORY_INITIALIZATION
# -- Compiling module LPM_HINT_EVALUATION
# -- Compiling module LPM_DEVICE_FAMILIES
# -- Compiling module lpm_constant
# -- Compiling module lpm_inv
# -- Compiling module lpm_and
# -- Compiling module lpm_or
# -- Compiling module lpm_xor
# -- Compiling module lpm_bustri
# -- Compiling module lpm_mux
# -- Compiling module lpm_decode
# -- Compiling module lpm_clshift
# -- Compiling module lpm_add_sub
# -- Compiling module lpm_compare
# -- Compiling module lpm_mult
# -- Compiling module lpm_divide
# -- Compiling module lpm_abs
# -- Compiling module lpm_counter
# -- Compiling module lpm_latch
# -- Compiling module lpm_ff
# -- Compiling module lpm_shiftreg
# -- Compiling module lpm_ram_dq
# -- Compiling module lpm_ram_dp
# -- Compiling module lpm_ram_io
# -- Compiling module lpm_rom
# -- Compiling module lpm_fifo
# -- Compiling module lpm_fifo_dc_dffpipe
# -- Compiling module lpm_fifo_dc_fefifo
# -- Compiling module lpm_fifo_dc_async
# -- Compiling module lpm_fifo_dc
# -- Compiling module lpm_inpad
# -- Compiling module lpm_outpad
# -- Compiling module lpm_bipad
# 
# Top level modules:
# 	lpm_constant
# 	lpm_inv
# 	lpm_and
# 	lpm_or
# 	lpm_xor
# 	lpm_bustri
# 	lpm_mux
# 	lpm_decode
# 	lpm_clshift
# 	lpm_add_sub
# 	lpm_compare
# 	lpm_mult
# 	lpm_divide
# 	lpm_abs
# 	lpm_counter
# 	lpm_latch
# 	lpm_ff
# 	lpm_shiftreg
# 	lpm_ram_dq
# 	lpm_ram_dp
# 	lpm_ram_io
# 	lpm_rom
# 	lpm_fifo
# 	lpm_fifo_dc
# 	lpm_inpad
# 	lpm_outpad
# 	lpm_bipad
# 
# vlib verilog_libs/sgate_ver
# vmap sgate_ver ./verilog_libs/sgate_ver
# Modifying modelsim.ini
# vlog -vlog01compat -work sgate_ver {d:/softs/quartus_ii_file/quartus/eda/sim_lib/sgate.v}
# Model Technology ModelSim SE-64 vlog 10.1c Compiler 2012.07 Jul 27 2012
# -- Compiling module oper_add
# -- Compiling module oper_addsub
# -- Compiling module mux21
# -- Compiling module io_buf_tri
# -- Compiling module io_buf_opdrn
# -- Compiling module oper_mult
# -- Compiling module tri_bus
# -- Compiling module oper_div
# -- Compiling module oper_mod
# -- Compiling module oper_left_shift
# -- Compiling module oper_right_shift
# -- Compiling module oper_rotate_left
# -- Compiling module oper_rotate_right
# -- Compiling module oper_less_than
# -- Compiling module oper_mux
# -- Compiling module oper_selector
# -- Compiling module oper_decoder
# -- Compiling module oper_bus_mux
# -- Compiling module oper_latch
# 
# Top level modules:
# 	oper_add
# 	oper_addsub
# 	mux21
# 	io_buf_tri
# 	io_buf_opdrn
# 	oper_mult
# 	tri_bus
# 	oper_div
# 	oper_mod
# 	oper_left_shift
# 	oper_right_shift
# 	oper_rotate_left
# 	oper_rotate_right
# 	oper_less_than
# 	oper_mux
# 	oper_selector
# 	oper_decoder
# 	oper_bus_mux
# 	oper_latch
# 
# vlib verilog_libs/altera_mf_ver
# vmap altera_mf_ver ./verilog_libs/altera_mf_ver
# Modifying modelsim.ini
# vlog -vlog01compat -work altera_mf_ver {d:/softs/quartus_ii_file/quartus/eda/sim_lib/altera_mf.v}
# Model Technology ModelSim SE-64 vlog 10.1c Compiler 2012.07 Jul 27 2012
# -- Compiling module lcell
# -- Compiling module ALTERA_MF_MEMORY_INITIALIZATION
# -- Compiling module ALTERA_MF_HINT_EVALUATION
# -- Compiling module ALTERA_DEVICE_FAMILIES
# -- Compiling module dffp
# -- Compiling module pll_iobuf
# -- Compiling module stx_m_cntr
# -- Compiling module stx_n_cntr
# -- Compiling module stx_scale_cntr
# -- Compiling module MF_pll_reg
# -- Compiling module MF_stratix_pll
# -- Compiling module arm_m_cntr
# -- Compiling module arm_n_cntr
# -- Compiling module arm_scale_cntr
# -- Compiling module MF_stratixii_pll
# -- Compiling module ttn_m_cntr
# -- Compiling module ttn_n_cntr
# -- Compiling module ttn_scale_cntr
# -- Compiling module MF_stratixiii_pll
# -- Compiling module cda_m_cntr
# -- Compiling module cda_n_cntr
# -- Compiling module cda_scale_cntr
# -- Compiling module MF_cycloneiii_pll
# -- Compiling module MF_cycloneiiigl_m_cntr
# -- Compiling module MF_cycloneiiigl_n_cntr
# -- Compiling module MF_cycloneiiigl_scale_cntr
# -- Compiling module cycloneiiigl_post_divider
# -- Compiling module MF_cycloneiiigl_pll
# -- Compiling module altpll
# -- Compiling module altlvds_rx
# -- Compiling module stratix_lvds_rx
# -- Compiling module stratixgx_dpa_lvds_rx
# -- Compiling module stratixii_lvds_rx
# -- Compiling module flexible_lvds_rx
# -- Compiling module stratixiii_lvds_rx
# -- Compiling module stratixiii_lvds_rx_channel
# -- Compiling module stratixiii_lvds_rx_dpa
# -- Compiling module altlvds_tx
# -- Compiling module stratixv_local_clk_divider
# -- Compiling module stratix_tx_outclk
# -- Compiling module stratixii_tx_outclk
# -- Compiling module flexible_lvds_tx
# -- Compiling module dcfifo_dffpipe
# -- Compiling module dcfifo_fefifo
# -- Compiling module dcfifo_async
# -- Compiling module dcfifo_sync
# -- Compiling module dcfifo_low_latency
# -- Compiling module dcfifo_mixed_widths
# -- Compiling module dcfifo
# -- Compiling module altera_syncram_derived
# -- Compiling module altera_syncram_derived_forwarding_logic
# -- Compiling module altaccumulate
# -- Compiling module altmult_accum
# -- Compiling module altmult_add
# -- Compiling module altfp_mult
# -- Compiling module altsqrt
# -- Compiling module altclklock
# -- Compiling module altddio_in
# -- Compiling module altddio_out
# -- Compiling module altddio_bidir
# -- Compiling module altdpram
# -- Compiling module altsyncram
# -- Compiling module altsyncram_body
# -- Compiling module alt3pram
# -- Compiling module parallel_add
# -- Compiling module scfifo
# -- Compiling module altshift_taps
# -- Compiling module a_graycounter
# -- Compiling module altsquare
# -- Compiling module altera_std_synchronizer
# -- Compiling module altera_std_synchronizer_bundle
# -- Compiling module alt_cal
# -- Compiling module alt_cal_mm
# -- Compiling module alt_cal_c3gxb
# -- Compiling module alt_cal_sv
# -- Compiling module alt_cal_av
# -- Compiling module alt_aeq_s4
# -- Compiling module alt_eyemon
# -- Compiling module alt_dfe
# -- Compiling module signal_gen
# -- Compiling module jtag_tap_controller
# -- Compiling module dummy_hub
# -- Compiling module sld_virtual_jtag
# -- Compiling module sld_signaltap
# -- Compiling module altstratixii_oct
# -- Compiling module altparallel_flash_loader
# -- Compiling module altserial_flash_loader
# -- Compiling module alt_fault_injection
# -- Compiling module sld_virtual_jtag_basic
# -- Compiling module altsource_probe
# 
# Top level modules:
# 	lcell
# 	altpll
# 	altlvds_rx
# 	altlvds_tx
# 	dcfifo
# 	altaccumulate
# 	altmult_accum
# 	altmult_add
# 	altfp_mult
# 	altsqrt
# 	altclklock
# 	altddio_bidir
# 	altdpram
# 	alt3pram
# 	parallel_add
# 	scfifo
# 	altshift_taps
# 	a_graycounter
# 	altsquare
# 	altera_std_synchronizer_bundle
# 	alt_cal
# 	alt_cal_mm
# 	alt_cal_c3gxb
# 	alt_cal_sv
# 	alt_cal_av
# 	alt_aeq_s4
# 	alt_eyemon
# 	alt_dfe
# 	sld_virtual_jtag
# 	sld_signaltap
# 	altstratixii_oct
# 	altparallel_flash_loader
# 	altserial_flash_loader
# 	alt_fault_injection
# 	sld_virtual_jtag_basic
# 	altsource_probe
# 
# vlib verilog_libs/altera_lnsim_ver
# vmap altera_lnsim_ver ./verilog_libs/altera_lnsim_ver
# Modifying modelsim.ini
# vlog -sv -work altera_lnsim_ver {d:/softs/quartus_ii_file/quartus/eda/sim_lib/altera_lnsim.sv}
# Model Technology ModelSim SE-64 vlog 10.1c Compiler 2012.07 Jul 27 2012
# -- Compiling package altera_lnsim_functions
# -- Compiling package altera_generic_pll_functions
# -- Compiling module generic_pll
# -- Importing package altera_lnsim_functions
# -- Importing package altera_generic_pll_functions
# -- Compiling module generic_cdr
# -- Compiling module common_28nm_ram_pulse_generator
# -- Compiling module common_28nm_ram_register
# -- Compiling module common_28nm_ram_block
# -- Compiling module generic_m20k
# -- Compiling module generic_m10k
# -- Compiling module common_28nm_mlab_cell_pulse_generator
# -- Compiling module common_28nm_mlab_latch
# -- Compiling module common_28nm_mlab_cell_core
# -- Compiling module common_porta_latches
# -- Compiling module generic_28nm_hp_mlab_cell_impl
# -- Compiling module common_porta_registers
# -- Compiling module generic_28nm_lc_mlab_cell_impl
# -- Compiling module common_28nm_lutram_register
# -- Compiling module generic_14nm_mlab_cell_impl
# -- Compiling module common_14nm_lutram_register
# -- Compiling module generic_mux
# -- Compiling module generic_device_pll
# -- Compiling module altera_mult_add
# -- Compiling module altera_mult_add_rtl
# -- Compiling module ama_signed_extension_function
# -- Compiling module ama_dynamic_signed_function
# -- Compiling module ama_register_function
# -- Compiling module ama_register_with_ext_function
# -- Compiling module ama_data_split_reg_ext_function
# -- Compiling module ama_coef_reg_ext_function
# -- Compiling module ama_adder_function
# -- Compiling module ama_multiplier_function
# -- Compiling module ama_preadder_function
# -- Compiling module ama_chainout_adder_accumulator_function
# -- Compiling module ama_systolic_adder_function
# -- Compiling module ama_scanchain
# -- Compiling module ama_latency_function
# -- Compiling module altera_pll_reconfig_tasks
# -- Compiling module altera_syncram
# -- Compiling module altera_syncram_forwarding_logic
# -- Compiling module ALTERA_LNSIM_MEMORY_INITIALIZATION
# -- Compiling module altera_stratixv_pll
# -- Compiling module altera_arriav_pll
# -- Compiling module altera_arriavgz_pll
# -- Compiling module altera_cyclonev_pll
# -- Compiling module altera_pll
# -- Compiling module dps_extra_kick
# -- Compiling module dprio_init
# -- Compiling module dps_pulse_gen
# -- Compiling module altera_iopll
# -- Compiling module dps_pulse_gen_iopll
# -- Compiling module twentynm_iopll_arlol
# -- Compiling module fourteennm_altera_iopll
# -- Compiling module dps_pulse_gen_fourteennm_iopll
# -- Compiling package fourteennm_iopll_functions
# -- Compiling module fourteennm_simple_iopll
# -- Importing package fourteennm_iopll_functions
# -- Compiling module fourteennm_sub_iopll
# -- Compiling module twentynm_iopll_ip
# -- Compiling module altera_iopll_rotation_lcells
# -- Compiling module altera_pll_dps_lcell_comb
# -- Compiling module iopll_bootstrap
# 
# Top level modules:
# 	generic_cdr
# 	generic_m20k
# 	generic_m10k
# 	common_porta_latches
# 	generic_28nm_hp_mlab_cell_impl
# 	generic_28nm_lc_mlab_cell_impl
# 	generic_14nm_mlab_cell_impl
# 	generic_mux
# 	generic_device_pll
# 	altera_mult_add
# 	altera_pll_reconfig_tasks
# 	altera_syncram
# 	altera_pll
# 	altera_iopll
# 	fourteennm_altera_iopll
# 	fourteennm_simple_iopll
# 
# vlib verilog_libs/cycloneive_ver
# vmap cycloneive_ver ./verilog_libs/cycloneive_ver
# Modifying modelsim.ini
# vlog -vlog01compat -work cycloneive_ver {d:/softs/quartus_ii_file/quartus/eda/sim_lib/cycloneive_atoms.v}
# Model Technology ModelSim SE-64 vlog 10.1c Compiler 2012.07 Jul 27 2012
# -- Compiling UDP CYCLONEIVE_PRIM_DFFE
# -- Compiling UDP CYCLONEIVE_PRIM_DFFEAS
# -- Compiling UDP CYCLONEIVE_PRIM_DFFEAS_HIGH
# -- Compiling module cycloneive_dffe
# -- Compiling module cycloneive_mux21
# -- Compiling module cycloneive_mux41
# -- Compiling module cycloneive_and1
# -- Compiling module cycloneive_and16
# -- Compiling module cycloneive_bmux21
# -- Compiling module cycloneive_b17mux21
# -- Compiling module cycloneive_nmux21
# -- Compiling module cycloneive_b5mux21
# -- Compiling module cycloneive_latch
# -- Compiling module cycloneive_routing_wire
# -- Compiling module cycloneive_m_cntr
# -- Compiling module cycloneive_n_cntr
# -- Compiling module cycloneive_scale_cntr
# -- Compiling module cycloneive_pll_reg
# -- Compiling module cycloneive_pll
# -- Compiling module cycloneive_lcell_comb
# -- Compiling module cycloneive_ff
# -- Compiling module cycloneive_ram_pulse_generator
# -- Compiling module cycloneive_ram_register
# -- Compiling module cycloneive_ram_block
# -- Compiling module cycloneive_mac_data_reg
# -- Compiling module cycloneive_mac_sign_reg
# -- Compiling module cycloneive_mac_mult_internal
# -- Compiling module cycloneive_mac_mult
# -- Compiling module cycloneive_mac_out
# -- Compiling module cycloneive_io_ibuf
# -- Compiling module cycloneive_io_obuf
# -- Compiling module cycloneive_ddio_out
# -- Compiling module cycloneive_ddio_oe
# -- Compiling module cycloneive_pseudo_diff_out
# -- Compiling module cycloneive_io_pad
# -- Compiling module cycloneive_asmiblock
# -- Compiling module cycloneive_ena_reg
# -- Compiling module cycloneive_clkctrl
# -- Compiling module cycloneive_rublock
# -- Compiling module cycloneive_apfcontroller
# -- Compiling module cycloneive_termination_ctrl
# -- Compiling module cycloneive_termination_rupdn
# -- Compiling module cycloneive_termination
# -- Compiling module cycloneive_jtag
# -- Compiling module cycloneive_crcblock
# -- Compiling module cycloneive_oscillator
# 
# Top level modules:
# 	cycloneive_dffe
# 	cycloneive_and1
# 	cycloneive_and16
# 	cycloneive_bmux21
# 	cycloneive_b17mux21
# 	cycloneive_nmux21
# 	cycloneive_b5mux21
# 	cycloneive_pll_reg
# 	cycloneive_pll
# 	cycloneive_lcell_comb
# 	cycloneive_ff
# 	cycloneive_ram_block
# 	cycloneive_mac_mult
# 	cycloneive_mac_out
# 	cycloneive_io_ibuf
# 	cycloneive_io_obuf
# 	cycloneive_ddio_out
# 	cycloneive_ddio_oe
# 	cycloneive_pseudo_diff_out
# 	cycloneive_io_pad
# 	cycloneive_asmiblock
# 	cycloneive_clkctrl
# 	cycloneive_rublock
# 	cycloneive_apfcontroller
# 	cycloneive_termination
# 	cycloneive_jtag
# 	cycloneive_crcblock
# 	cycloneive_oscillator
# 
# if {[file exists rtl_work]} {
# 	vdel -lib rtl_work -all
# }
# vlib rtl_work
# vmap work rtl_work
# Modifying modelsim.ini
# 
# vlog -vlog01compat -work work +incdir+D:/file/SRAMC/SRAM/src {D:/file/SRAMC/SRAM/src/SRAM.v}
# Model Technology ModelSim SE-64 vlog 10.1c Compiler 2012.07 Jul 27 2012
# -- Compiling module SRAM
# 
# Top level modules:
# 	SRAM
# vlog -vlog01compat -work work +incdir+D:/file/SRAMC/SRAM/src {D:/file/SRAMC/SRAM/src/MMU.v}
# Model Technology ModelSim SE-64 vlog 10.1c Compiler 2012.07 Jul 27 2012
# -- Compiling module MMU
# 
# Top level modules:
# 	MMU
# 
# vlog -sv -work work +incdir+D:/file/SRAMC/SRAM/pro/MMU_pro/../../tb {D:/file/SRAMC/SRAM/pro/MMU_pro/../../tb/MMU_tb.sv}
# Model Technology ModelSim SE-64 vlog 10.1c Compiler 2012.07 Jul 27 2012
# -- Compiling module MMU_tb
# 
# Top level modules:
# 	MMU_tb
# 
# vsim -t 1ps -L altera_ver -L lpm_ver -L sgate_ver -L altera_mf_ver -L altera_lnsim_ver -L cycloneive_ver -L rtl_work -L work -voptargs="+acc"  MMU_tb
# vsim -L altera_ver -L lpm_ver -L sgate_ver -L altera_mf_ver -L altera_lnsim_ver -L cycloneive_ver -L rtl_work -L work -voptargs=\"+acc\" -t 1ps MMU_tb 
# ** Note: (vsim-3812) Design is being optimized...
# 
# Loading sv_std.std
# Loading work.MMU_tb(fast)
# Loading work.MMU(fast)
# Loading work.SRAM(fast)
# ** Warning: (vsim-3015) D:/file/SRAMC/SRAM/pro/MMU_pro/../../tb/MMU_tb.sv(40): [PCDPC] - Port size (3 or 3) does not match connection size (4) for port 'addr'. The port definition is at: D:/file/SRAMC/SRAM/src/MMU.v(21).
# 
#         Region: /MMU_tb/MMU_dut
# 
# add wave *
# 
# view structure
# .main_pane.structure.interior.cs.body.struct
# view signals
# .main_pane.objects.interior.cs.body.tree
# run -all
# At time                    0, start = 0, rw_ena = 0, frame = 0,wr_data = 00,rd_dta = 00,data_table_out = 0Xxxxx
# At time                10000, start = 0, rw_ena = 0, frame = 0,wr_data = 00,rd_dta = 00,data_table_out = 000000
# At time                15000, start = 0, rw_ena = 0, frame = 0,wr_data = 00,rd_dta = 00,data_table_out = 000111
# At time                35000, start = 1, rw_ena = 0, frame = 1,wr_data = 08,rd_dta = 00,data_table_out = 000111
# At time                45000, start = 1, rw_ena = 0, frame = 1,wr_data = 33,rd_dta = 00,data_table_out = 001110
# At time                55000, start = 1, rw_ena = 0, frame = 1,wr_data = ac,rd_dta = 00,data_table_out = 001110
# At time                65000, start = 1, rw_ena = 0, frame = 1,wr_data = 34,rd_dta = 00,data_table_out = 001110
# At time                75000, start = 1, rw_ena = 0, frame = 1,wr_data = 99,rd_dta = 00,data_table_out = 001110
# At time                85000, start = 1, rw_ena = 0, frame = 1,wr_data = 41,rd_dta = 00,data_table_out = 001110
# At time                95000, start = 1, rw_ena = 0, frame = 1,wr_data = 0c,rd_dta = 00,data_table_out = 001110
# At time               105000, start = 1, rw_ena = 0, frame = 1,wr_data = 14,rd_dta = 00,data_table_out = 001110
# At time               115000, start = 0, rw_ena = 0, frame = 1,wr_data = 14,rd_dta = 00,data_table_out = 001110
# At time               135000, start = 1, rw_ena = 0, frame = 1,wr_data = 99,rd_dta = 00,data_table_out = 001110
# At time               145000, start = 1, rw_ena = 0, frame = 1,wr_data = 30,rd_dta = 00,data_table_out = 011100
# At time               155000, start = 1, rw_ena = 0, frame = 1,wr_data = 86,rd_dta = 00,data_table_out = 011100
# At time               165000, start = 1, rw_ena = 0, frame = 1,wr_data = 35,rd_dta = 00,data_table_out = 011100
# At time               175000, start = 1, rw_ena = 0, frame = 1,wr_data = 77,rd_dta = 00,data_table_out = 011100
# At time               185000, start = 1, rw_ena = 0, frame = 1,wr_data = ba,rd_dta = 00,data_table_out = 011100
# At time               195000, start = 1, rw_ena = 0, frame = 1,wr_data = 0a,rd_dta = 00,data_table_out = 011100
# At time               205000, start = 1, rw_ena = 0, frame = 1,wr_data = 41,rd_dta = 00,data_table_out = 011100
# At time               215000, start = 0, rw_ena = 0, frame = 1,wr_data = 41,rd_dta = 00,data_table_out = 011100
# At time               235000, start = 1, rw_ena = 0, frame = 1,wr_data = 87,rd_dta = 00,data_table_out = 011100
# At time               245000, start = 1, rw_ena = 0, frame = 1,wr_data = 08,rd_dta = 00,data_table_out = 011100
# At time               255000, start = 1, rw_ena = 0, frame = 1,wr_data = 9b,rd_dta = 00,data_table_out = 011100
# At time               265000, start = 1, rw_ena = 0, frame = 1,wr_data = 75,rd_dta = 00,data_table_out = 011100
# At time               275000, start = 1, rw_ena = 0, frame = 1,wr_data = 56,rd_dta = 00,data_table_out = 011100
# At time               285000, start = 1, rw_ena = 0, frame = 1,wr_data = 2a,rd_dta = 00,data_table_out = 011100
# At time               295000, start = 1, rw_ena = 0, frame = 1,wr_data = 28,rd_dta = 00,data_table_out = 011100
# At time               305000, start = 1, rw_ena = 0, frame = 1,wr_data = a9,rd_dta = 00,data_table_out = 011100
# At time               315000, start = 0, rw_ena = 0, frame = 1,wr_data = a9,rd_dta = 00,data_table_out = 011100
# At time               335000, start = 1, rw_ena = 0, frame = 1,wr_data = 98,rd_dta = 00,data_table_out = 011100
# At time               345000, start = 1, rw_ena = 0, frame = 1,wr_data = 32,rd_dta = 00,data_table_out = 011100
# At time               355000, start = 1, rw_ena = 0, frame = 1,wr_data = a6,rd_dta = 00,data_table_out = 011100
# At time               365000, start = 1, rw_ena = 0, frame = 1,wr_data = 90,rd_dta = 00,data_table_out = 011100
# At time               375000, start = 1, rw_ena = 0, frame = 1,wr_data = 50,rd_dta = 00,data_table_out = 011100
# At time               385000, start = 1, rw_ena = 0, frame = 1,wr_data = 0a,rd_dta = 00,data_table_out = 011100
# At time               395000, start = 1, rw_ena = 0, frame = 1,wr_data = 00,rd_dta = 00,data_table_out = 011100
# At time               405000, start = 1, rw_ena = 0, frame = 1,wr_data = 69,rd_dta = 00,data_table_out = 011100
# At time               415000, start = 0, rw_ena = 0, frame = 1,wr_data = 69,rd_dta = 00,data_table_out = 011100
# At time               435000, start = 1, rw_ena = 1, frame = 1,wr_data = 69,rd_dta = 00,data_table_out = 011100
# At time               455000, start = 1, rw_ena = 1, frame = 1,wr_data = 69,rd_dta = 87,data_table_out = 011100
# At time               465000, start = 1, rw_ena = 1, frame = 1,wr_data = 69,rd_dta = 08,data_table_out = 011100
# At time               475000, start = 1, rw_ena = 1, frame = 1,wr_data = 69,rd_dta = 9b,data_table_out = 011100
# At time               485000, start = 1, rw_ena = 1, frame = 1,wr_data = 69,rd_dta = 75,data_table_out = 011100
# At time               495000, start = 1, rw_ena = 1, frame = 1,wr_data = 69,rd_dta = 56,data_table_out = 011100
# At time               505000, start = 1, rw_ena = 1, frame = 1,wr_data = 69,rd_dta = 2a,data_table_out = 011100
# At time               515000, start = 1, rw_ena = 1, frame = 1,wr_data = 69,rd_dta = 28,data_table_out = 011100
# At time               525000, start = 1, rw_ena = 1, frame = 1,wr_data = 69,rd_dta = a9,data_table_out = 011100
# At time               535000, start = 0, rw_ena = 1, frame = 1,wr_data = 69,rd_dta = 00,data_table_out = 011100
# At time               555000, start = 1, rw_ena = 0, frame = 1,wr_data = 98,rd_dta = 00,data_table_out = 011100
# At time               565000, start = 1, rw_ena = 0, frame = 1,wr_data = 3a,rd_dta = 00,data_table_out = 011100
# At time               575000, start = 1, rw_ena = 0, frame = 1,wr_data = 06,rd_dta = 00,data_table_out = 011100
# At time               585000, start = 1, rw_ena = 0, frame = 1,wr_data = 95,rd_dta = 00,data_table_out = 011100
# At time               595000, start = 1, rw_ena = 0, frame = 1,wr_data = 99,rd_dta = 00,data_table_out = 011100
# At time               605000, start = 1, rw_ena = 0, frame = 1,wr_data = 2a,rd_dta = 00,data_table_out = 011100
# At time               615000, start = 1, rw_ena = 0, frame = 1,wr_data = 08,rd_dta = 00,data_table_out = 011100
# At time               625000, start = 1, rw_ena = 0, frame = 1,wr_data = 89,rd_dta = 00,data_table_out = 011100
# At time               635000, start = 0, rw_ena = 0, frame = 1,wr_data = 89,rd_dta = 00,data_table_out = 011100
# At time               655000, start = 1, rw_ena = 0, frame = 1,wr_data = 90,rd_dta = 00,data_table_out = 011100
# At time               665000, start = 1, rw_ena = 0, frame = 1,wr_data = d1,rd_dta = 00,data_table_out = 011000
# At time               675000, start = 1, rw_ena = 0, frame = 1,wr_data = 32,rd_dta = 00,data_table_out = 011000
# At time               685000, start = 1, rw_ena = 0, frame = 1,wr_data = 55,rd_dta = 00,data_table_out = 011000
# At time               695000, start = 1, rw_ena = 0, frame = 1,wr_data = a7,rd_dta = 00,data_table_out = 011000
# At time               705000, start = 1, rw_ena = 0, frame = 1,wr_data = b2,rd_dta = 00,data_table_out = 011000
# At time               715000, start = 1, rw_ena = 0, frame = 1,wr_data = 65,rd_dta = 00,data_table_out = 011000
# At time               725000, start = 1, rw_ena = 0, frame = 1,wr_data = 96,rd_dta = 00,data_table_out = 011000
# At time               735000, start = 0, rw_ena = 0, frame = 1,wr_data = 96,rd_dta = 00,data_table_out = 011000
# At time               755000, start = 1, rw_ena = 1, frame = 1,wr_data = 96,rd_dta = 00,data_table_out = 011000
# At time               765000, start = 1, rw_ena = 1, frame = 1,wr_data = 96,rd_dta = 00,data_table_out = 011001
# At time               775000, start = 1, rw_ena = 1, frame = 1,wr_data = 96,rd_dta = 08,data_table_out = 011001
# At time               785000, start = 1, rw_ena = 1, frame = 1,wr_data = 96,rd_dta = 33,data_table_out = 011001
# At time               795000, start = 1, rw_ena = 1, frame = 1,wr_data = 96,rd_dta = ac,data_table_out = 011001
# At time               805000, start = 1, rw_ena = 1, frame = 1,wr_data = 96,rd_dta = 34,data_table_out = 011001
# At time               815000, start = 1, rw_ena = 1, frame = 1,wr_data = 96,rd_dta = 99,data_table_out = 011001
# At time               825000, start = 1, rw_ena = 1, frame = 1,wr_data = 96,rd_dta = 41,data_table_out = 011001
# At time               835000, start = 1, rw_ena = 1, frame = 1,wr_data = 96,rd_dta = 0c,data_table_out = 011001
# At time               845000, start = 1, rw_ena = 1, frame = 1,wr_data = 96,rd_dta = 14,data_table_out = 011001
# At time               855000, start = 0, rw_ena = 1, frame = 1,wr_data = 96,rd_dta = 00,data_table_out = 011001
# At time               875000, start = 1, rw_ena = 1, frame = 1,wr_data = 96,rd_dta = 00,data_table_out = 011001
# At time               895000, start = 1, rw_ena = 1, frame = 1,wr_data = 96,rd_dta = 90,data_table_out = 011001
# At time               905000, start = 1, rw_ena = 1, frame = 1,wr_data = 96,rd_dta = d1,data_table_out = 011001
# At time               915000, start = 1, rw_ena = 1, frame = 1,wr_data = 96,rd_dta = 32,data_table_out = 011001
# At time               925000, start = 1, rw_ena = 1, frame = 1,wr_data = 96,rd_dta = 55,data_table_out = 011001
# At time               935000, start = 1, rw_ena = 1, frame = 1,wr_data = 96,rd_dta = a7,data_table_out = 011001
# At time               945000, start = 1, rw_ena = 1, frame = 1,wr_data = 96,rd_dta = b2,data_table_out = 011001
# At time               955000, start = 1, rw_ena = 1, frame = 1,wr_data = 96,rd_dta = 65,data_table_out = 011001
# At time               965000, start = 1, rw_ena = 1, frame = 1,wr_data = 96,rd_dta = 96,data_table_out = 011001
# ** Note: $finish    : D:/file/SRAMC/SRAM/pro/MMU_pro/../../tb/MMU_tb.sv(222)
#    Time: 975 ns  Iteration: 0  Instance: /MMU_tb
# 1
# Break in Module MMU_tb at D:/file/SRAMC/SRAM/pro/MMU_pro/../../tb/MMU_tb.sv line 222
# Simulation Breakpoint: 1
# Break in Module MMU_tb at D:/file/SRAMC/SRAM/pro/MMU_pro/../../tb/MMU_tb.sv line 222
# MACRO ./MMU_run_msim_rtl_verilog.do PAUSED at line 47
